Id,Writer,BO_collection_cr,BO_Analysis
1,Hrishikesh Mukherjee,61,Super Hit
2,Upendra Sidhaye,94,Hit
3,Mani Ratnam,55,Super Hit
4,Nitesh Tiwari,511,Blockbuster
5,Neeraj Vora,200,Hit
6,Anurag Kashyap,8,Flop
7,Javed Akhtar Salim khan,15,Blockbuster
8,Vishal Bhardwaj,226,Hit
9,Neeraj Vora,22,Super Hit
10,Anvita Dutt Guptan,120,Super Hit
11,Kiran Kotrial,109,Hit
12,Kiran Kotrial,162,Hit
13,Kiran Kotrial,303,Average
14,Vijay Krishna Acharya,72,Hit
15,Vijay Krishna Acharya,105,Hit
16,Vijay Krishna Acharya,589,Super Hit
